Sentiment Analysis
…
We have performed the tidy operation on our text such that each row contains a single word. We will now make use of the bing lexicon to and implement filter() over the words.

positive_senti <- get_sentiments("bing") %>%
    filter(sentiment == "positive")

tidy_data %>% 
    filter(book == "Emma") %>%
    semi_join(positive_senti) %>%
    count(word, sort = TRUE)

## # A tibble: 668 x 2
##    word         n
##    <chr>    <int>
##  1 well       401
##  2 good       359
##  3 great      264
##  4 like       200
##  5 better     173
##  6 enough     129
##  7 happy      125
##  8 love       117
##  9 pleasure   115
## 10 right       92
## # ... with 658 more rows
…
